\relax 
\gdef\pointsofq@i{1}
\gdef\bonuspointsofq@i{0}
\gdef\pointsofq@ii{20}
\gdef\bonuspointsofq@ii{0}
\PgInfo{question@1}{1}
\PgInfo{question1@object1}{1}
\newlabel{question@1}{{1}{1}}
\newlabel{firstpoints@onpage@1}{{1}{1}}
\PgInfo{question@2}{1}
\PgInfo{question2@object1}{1}
\newlabel{question@2}{{2}{1}}
\PgInfo{part@2@1}{1}
\PgInfo{question2@object2}{1}
\newlabel{part@2@1}{{a}{1}}
\PgInfo{part@2@2}{1}
\PgInfo{question2@object3}{1}
\newlabel{part@2@2}{{b}{1}}
\PgInfo{question@3}{1}
\PgInfo{question3@object1}{1}
\newlabel{question@3}{{3}{1}}
\PgInfo{question3@object2}{1}
\PgInfo{question3@object3}{1}
\gdef\pointsofq@iii{2}
\gdef\bonuspointsofq@iii{0}
\gdef\pointsonpage@i{23}
\gdef\pointsofq@iv{2}
\gdef\bonuspointsofq@iv{0}
\gdef\pointsofq@v{3}
\gdef\bonuspointsofq@v{0}
\gdef\pointsofq@vi{3}
\gdef\bonuspointsofq@vi{0}
\gdef\pointsofq@vii{2}
\gdef\bonuspointsofq@vii{0}
\gdef\pointsofq@viii{10}
\gdef\bonuspointsofq@viii{0}
\PgInfo{question3@object4}{2}
\PgInfo{question3@object5}{2}
\PgInfo{question3@object6}{2}
\PgInfo{question@4}{2}
\PgInfo{question4@object1}{2}
\newlabel{question@4}{{4}{2}}
\newlabel{firstpoints@onpage@2}{{4}{2}}
\PgInfo{question4@object2}{2}
\PgInfo{question4@object3}{2}
\PgInfo{question4@object4}{2}
\PgInfo{question4@object5}{2}
\PgInfo{question4@object6}{2}
\PgInfo{question@5}{2}
\PgInfo{question5@object1}{2}
\newlabel{question@5}{{5}{2}}
\PgInfo{question5@object2}{2}
\PgInfo{question5@object3}{2}
\PgInfo{question5@object4}{2}
\PgInfo{question@6}{2}
\PgInfo{question6@object1}{2}
\newlabel{question@6}{{6}{2}}
\PgInfo{question6@object2}{2}
\PgInfo{question6@object3}{2}
\PgInfo{question6@object4}{2}
\PgInfo{question@7}{2}
\PgInfo{question7@object1}{2}
\newlabel{question@7}{{7}{2}}
\PgInfo{question7@object2}{2}
\PgInfo{question7@object3}{2}
\PgInfo{question7@object4}{2}
\PgInfo{question7@object5}{2}
\PgInfo{question7@object6}{2}
\PgInfo{question7@object7}{2}
\PgInfo{question7@object8}{2}
\PgInfo{question7@object9}{2}
\PgInfo{question@8}{2}
\PgInfo{question8@object1}{2}
\newlabel{question@8}{{8}{2}}
\PgInfo{question@9}{2}
\PgInfo{question9@object1}{2}
\newlabel{question@9}{{9}{2}}
\gdef\pointsofq@ix{20}
\gdef\bonuspointsofq@ix{0}
\gdef\pointsonpage@ii{40}
\PgInfo{question@10}{3}
\PgInfo{question10@object1}{3}
\newlabel{question@10}{{10}{3}}
\newlabel{firstpoints@onpage@3}{{10}{3}}
\gdef\pointsofq@x{20}
\gdef\bonuspointsofq@x{0}
\gdef\pointsonpage@iii{20}
\gdef\pointsofq@xi{20}
\gdef\bonuspointsofq@xi{0}
\PgInfo{question@11}{4}
\PgInfo{question11@object1}{4}
\newlabel{question@11}{{11}{4}}
\newlabel{firstpoints@onpage@4}{{11}{4}}
\gdef\exam@lastpage{4}
\gdef\exam@lastcoverpage{0}
\gdef\exam@totalpages{4}
\gdef\exam@numpoints{103}
\gdef\exam@numbonuspoints{0}
\gdef\exam@numquestions{11}
\gdef\exam@numparts{2}
\gdef\exam@numsubparts{0}
\gdef\exam@numsubsubparts{0}
\gdef\pointsonpage@iv{20}
\gdef\lastpage@withpoints{4}
\gdef\lastpage@withbonuspoints{0}
