 2015  gedit soluciones.md
 2016  git status
 2017  cd ..
 2018  git add .
 2019  git status
 2020  cd 03_13/
 2021  cat /etc/group
 2022  cat /etc/group | cut -d: -f1
 2023  cat /etc/group | cut -d: -f1 | tr "\n" " "
 2024  history
 2025  history 2014-
 2026  history 2014
 2027  history | tail -10 -
 2028  history | tail -14 - > historial_03_13.txt
