digraph {
	
	subgraph cluster_sda0 {

		label="sda0"

		raiz -> bin
		raiz -> sbin
		raiz -> etc
		raiz -> home
		raiz -> var
		raiz -> usr
		raiz -> srv

		home -> smyr01
		home -> txema

		txema -> Documentos
		txema -> Imágenes
		txema -> Descargas
		txema -> Música

		subgraph cluster_sdb0 {
			label="sdb0"

			torrent -> películas
			torrent -> música
			torrent -> juegos
		}
	
		Descargas -> torrent
	}
}
