digraph {
     rankdir=LR;
     
     prog1 [label="Programa 1" image="gear1.png" shape=none];    
     prog2 [label="Programa 2" image="gear1.png" shape=none];
     teclado [image="kb11.png" shape=none];
     log [shape=folder];
     pantalla [image="pantalla.png" shape=none];

     teclado -> prog1 [label="stdin"];
     prog1 -> pantalla  [label="stdout"];
     prog1 -> log  [label="stderr"];
     prog1 -> prog2 [label="tuberías |"];
}
