<?xml version="1.0" encoding="UTF-8" standalone="no"?>
<svg
   xmlns:dc="http://purl.org/dc/elements/1.1/"
   xmlns:cc="http://creativecommons.org/ns#"
   xmlns:rdf="http://www.w3.org/1999/02/22-rdf-syntax-ns#"
   xmlns:svg="http://www.w3.org/2000/svg"
   xmlns="http://www.w3.org/2000/svg"
   id="svg91"
   xml:space="preserve"
   overflow="scroll"
   viewBox="-275 -275 550 550"
   height="550px"
   width="550px"
   y="0px"
   x="0px"
   class="svggear"
   version="1.2"><metadata
     id="metadata97"><rdf:RDF><cc:Work
         rdf:about=""><dc:format>image/svg+xml</dc:format><dc:type
           rdf:resource="http://purl.org/dc/dcmitype/StillImage" /><dc:title></dc:title></cc:Work></rdf:RDF></metadata><defs
     id="defs95" /><polygon
     points="221.25,0 222.786,0 222.887,-0.003 223.057,-0.011 223.294,-0.025 223.598,-0.049 223.97,-0.085 224.408,-0.135 224.912,-0.202 225.483,-0.287 226.119,-0.394 226.819,-0.523 227.584,-0.679 228.412,-0.863 229.302,-1.077 230.255,-1.323 231.268,-1.604 232.342,-1.922 233.474,-2.28 234.665,-2.678 235.912,-3.12 237.215,-3.607 238.572,-4.142 239.982,-4.726 241.445,-5.362 242.957,-6.051 244.519,-6.796 246.128,-7.599 247.783,-8.461 249.483,-9.383 251.225,-10.369 253.008,-11.42 254.83,-12.536 256.69,-13.721 258.586,-14.976 260.515,-16.302 262.476,-17.701 264.466,-19.174 266.485,-20.723 268.529,-22.35 270.598,-24.054 272.687,-25.839 273.613,-27.586 272.615,-36.136 271.312,-37.623 268.868,-38.879 266.463,-40.062 264.099,-41.174 261.778,-42.217 259.502,-43.192 257.272,-44.102 255.089,-44.948 252.956,-45.733 250.873,-46.458 248.843,-47.125 246.866,-47.737 244.943,-48.296 243.077,-48.802 241.268,-49.26 239.517,-49.67 237.826,-50.036 236.195,-50.359 234.626,-50.641 233.119,-50.885 231.675,-51.093 230.295,-51.267 228.98,-51.41 227.73,-51.524 226.545,-51.611 225.427,-51.673 224.376,-51.713 223.393,-51.734 222.477,-51.737 221.629,-51.725 220.849,-51.701 220.137,-51.666 219.494,-51.623 218.919,-51.575 218.413,-51.524 217.975,-51.471 217.605,-51.421 217.304,-51.374 217.069,-51.334 216.903,-51.302 216.803,-51.281 215.309,-50.928 210.421,-68.37 211.882,-68.845 211.977,-68.879 212.136,-68.938 212.357,-69.026 212.639,-69.143 212.981,-69.291 213.383,-69.474 213.842,-69.694 214.358,-69.951 214.93,-70.249 215.556,-70.589 216.235,-70.973 216.966,-71.404 217.747,-71.882 218.577,-72.411 219.454,-72.992 220.376,-73.626 221.343,-74.316 222.352,-75.062 223.401,-75.868 224.49,-76.734 225.616,-77.662 226.776,-78.653 227.971,-79.71 229.196,-80.833 230.451,-82.024 231.734,-83.285 233.041,-84.616 234.373,-86.019 235.725,-87.494 237.096,-89.044 238.484,-90.67 239.887,-92.371 241.302,-94.15 242.727,-96.008 244.159,-97.944 245.597,-99.96 247.039,-102.057 248.48,-104.236 249.92,-106.496 251.356,-108.84 251.697,-110.787 248.106,-118.61 246.407,-119.622 243.695,-120.061 241.042,-120.443 238.45,-120.77 235.92,-121.044 233.454,-121.269 231.052,-121.445 228.714,-121.575 226.443,-121.662 224.238,-121.708 222.101,-121.716 220.031,-121.686 218.031,-121.623 216.099,-121.529 214.237,-121.405 212.446,-121.254 210.724,-121.079 209.074,-120.882 207.494,-120.666 205.985,-120.432 204.548,-120.184 203.181,-119.923 201.886,-119.652 200.662,-119.374 199.509,-119.091 198.426,-118.805 197.414,-118.518 196.473,-118.234 195.6,-117.954 194.797,-117.681 194.063,-117.416 193.397,-117.163 192.799,-116.924 192.267,-116.7 191.801,-116.495 191.401,-116.31 191.065,-116.148 190.792,-116.01 190.582,-115.899 190.434,-115.818 190.345,-115.767 189.033,-114.97 178.995,-130.047 180.237,-130.95 180.318,-131.012 180.45,-131.118 180.634,-131.269 180.866,-131.468 181.145,-131.715 181.47,-132.013 181.839,-132.363 182.251,-132.768 182.702,-133.228 183.193,-133.744 183.72,-134.32 184.282,-134.955 184.877,-135.652 185.502,-136.411 186.157,-137.234 186.838,-138.122 187.545,-139.077 188.274,-140.099 189.023,-141.189 189.791,-142.349 190.574,-143.58 191.372,-144.882 192.181,-146.256 193,-147.703 193.825,-149.223 194.655,-150.818 195.488,-152.488 196.32,-154.234 197.15,-156.055 197.975,-157.953 198.793,-159.928 199.601,-161.979 200.397,-164.109 201.179,-166.315 201.943,-168.6 202.688,-170.962 203.41,-173.401 204.108,-175.919 204.779,-178.514 205.421,-181.186 205.143,-183.143 199.31,-189.474 197.382,-189.911 194.667,-189.49 192.026,-189.034 189.459,-188.544 186.969,-188.023 184.554,-187.475 182.215,-186.9 179.951,-186.302 177.764,-185.682 175.653,-185.045 173.618,-184.391 171.659,-183.724 169.776,-183.046 167.968,-182.359 166.236,-181.666 164.578,-180.969 162.995,-180.271 161.486,-179.573 160.05,-178.879 158.688,-178.191 157.397,-177.51 156.179,-176.84 155.03,-176.182 153.952,-175.54 152.943,-174.914 152.002,-174.307 151.128,-173.722 150.32,-173.161 149.577,-172.625 148.898,-172.117 148.282,-171.638 147.726,-171.192 147.231,-170.779 146.794,-170.403 146.415,-170.063 146.091,-169.764 145.822,-169.505 145.605,-169.29 145.44,-169.12 145.324,-168.997 145.255,-168.921 144.254,-167.757 130.047,-178.995 130.95,-180.238 131.007,-180.321 131.101,-180.463 131.228,-180.663 131.388,-180.924 131.577,-181.245 131.794,-181.629 132.037,-182.077 132.303,-182.588 132.591,-183.165 132.897,-183.808 133.221,-184.518 133.559,-185.296 133.909,-186.142 134.27,-187.058 134.638,-188.043 135.012,-189.098 135.388,-190.225 135.766,-191.422 136.142,-192.69 136.513,-194.031 136.878,-195.443 137.235,-196.928 137.58,-198.485 137.911,-200.114 138.226,-201.815 138.523,-203.588 138.799,-205.434 139.051,-207.351 139.277,-209.34 139.476,-211.4 139.643,-213.531 139.778,-215.732 139.877,-218.003 139.938,-220.343 139.959,-222.752 139.937,-225.228 139.871,-227.772 139.757,-230.382 139.593,-233.057 139.377,-235.796 138.508,-237.572 131.005,-241.791 129.036,-241.611 126.583,-240.371 124.212,-239.121 121.923,-237.862 119.715,-236.597 117.588,-235.329 115.541,-234.06 113.574,-232.791 111.685,-231.527 109.874,-230.268 108.141,-229.017 106.484,-227.778 104.902,-226.551 103.395,-225.339 101.962,-224.144 100.601,-222.969 99.311,-221.816 98.091,-220.686 96.94,-219.583 95.857,-218.507 94.84,-217.461 93.888,-216.447 92.999,-215.466 92.173,-214.522 91.406,-213.615 90.699,-212.747 90.048,-211.921 89.453,-211.137 88.912,-210.398 88.424,-209.705 87.985,-209.059 87.595,-208.463 87.251,-207.918 86.953,-207.424 86.697,-206.985 86.481,-206.6 86.305,-206.271 86.165,-205.999 86.06,-205.786 85.988,-205.633 85.946,-205.54 85.354,-204.123 68.37,-210.421 68.844,-211.882 68.873,-211.979 68.918,-212.143 68.978,-212.373 69.049,-212.67 69.129,-213.034 69.217,-213.466 69.31,-213.967 69.405,-214.536 69.5,-215.173 69.593,-215.88 69.681,-216.655 69.763,-217.499 69.834,-218.412 69.894,-219.394 69.94,-220.445 69.969,-221.564 69.979,-222.752 69.968,-224.007 69.934,-225.33 69.873,-226.719 69.784,-228.175 69.664,-229.697 69.511,-231.285 69.323,-232.936 69.097,-234.652 68.831,-236.43 68.523,-238.27 68.17,-240.172 67.771,-242.133 67.323,-244.154 66.824,-246.232 66.272,-248.367 65.664,-250.557 64.999,-252.802 64.275,-255.099 63.489,-257.448 62.639,-259.846 61.724,-262.293 60.742,-264.787 59.69,-267.326 58.315,-268.746 49.875,-270.439 48.059,-269.66 46.109,-267.723 44.241,-265.801 42.453,-263.897 40.744,-262.012 39.112,-260.148 37.558,-258.308 36.078,-256.494 34.673,-254.707 33.34,-252.951 32.078,-251.226 30.885,-249.535 29.76,-247.879 28.701,-246.261 27.707,-244.682 26.776,-243.144 25.905,-241.648 25.094,-240.197 24.341,-238.792 23.643,-237.434 22.999,-236.125 22.407,-234.866 21.865,-233.659 21.37,-232.505 20.922,-231.406 20.517,-230.362 20.154,-229.375 19.83,-228.446 19.544,-227.576 19.293,-226.765 19.076,-226.016 18.889,-225.329 18.731,-224.704 18.599,-224.142 18.492,-223.645 18.406,-223.212 18.34,-222.845 18.291,-222.543 18.257,-222.308 18.236,-222.14 18.224,-222.039 18.098,-220.509 0,-221.25 0,-222.786 -0.003,-222.887 -0.011,-223.057 -0.025,-223.294 -0.049,-223.598 -0.085,-223.97 -0.135,-224.408 -0.202,-224.912 -0.287,-225.483 -0.394,-226.119 -0.523,-226.819 -0.679,-227.584 -0.863,-228.412 -1.077,-229.302 -1.323,-230.255 -1.604,-231.268 -1.922,-232.342 -2.28,-233.474 -2.678,-234.665 -3.12,-235.912 -3.607,-237.215 -4.142,-238.572 -4.726,-239.982 -5.362,-241.445 -6.051,-242.957 -6.796,-244.519 -7.599,-246.128 -8.461,-247.783 -9.383,-249.483 -10.369,-251.225 -11.42,-253.008 -12.536,-254.83 -13.721,-256.69 -14.976,-258.586 -16.302,-260.515 -17.701,-262.476 -19.174,-264.466 -20.723,-266.485 -22.35,-268.529 -24.054,-270.598 -25.839,-272.687 -27.586,-273.613 -36.136,-272.615 -37.623,-271.312 -38.879,-268.868 -40.062,-266.463 -41.174,-264.099 -42.217,-261.778 -43.192,-259.502 -44.102,-257.272 -44.948,-255.089 -45.733,-252.956 -46.458,-250.873 -47.125,-248.843 -47.737,-246.866 -48.296,-244.943 -48.802,-243.077 -49.26,-241.268 -49.67,-239.517 -50.036,-237.826 -50.359,-236.195 -50.641,-234.626 -50.885,-233.119 -51.093,-231.675 -51.267,-230.295 -51.41,-228.98 -51.524,-227.73 -51.611,-226.545 -51.673,-225.427 -51.713,-224.376 -51.734,-223.393 -51.737,-222.477 -51.725,-221.629 -51.701,-220.849 -51.666,-220.137 -51.623,-219.494 -51.575,-218.919 -51.524,-218.413 -51.471,-217.975 -51.421,-217.605 -51.374,-217.304 -51.334,-217.069 -51.302,-216.903 -51.281,-216.803 -50.928,-215.309 -68.37,-210.421 -68.845,-211.882 -68.879,-211.977 -68.938,-212.136 -69.026,-212.357 -69.143,-212.639 -69.291,-212.981 -69.474,-213.383 -69.694,-213.842 -69.951,-214.358 -70.249,-214.93 -70.589,-215.556 -70.973,-216.235 -71.404,-216.966 -71.882,-217.747 -72.411,-218.577 -72.992,-219.454 -73.626,-220.376 -74.316,-221.343 -75.062,-222.352 -75.868,-223.401 -76.734,-224.49 -77.662,-225.616 -78.653,-226.776 -79.71,-227.971 -80.833,-229.196 -82.024,-230.451 -83.285,-231.734 -84.616,-233.041 -86.019,-234.373 -87.494,-235.725 -89.044,-237.096 -90.67,-238.484 -92.371,-239.887 -94.15,-241.302 -96.008,-242.727 -97.944,-244.159 -99.96,-245.597 -102.057,-247.039 -104.236,-248.48 -106.496,-249.92 -108.84,-251.356 -110.787,-251.697 -118.61,-248.106 -119.622,-246.407 -120.061,-243.695 -120.443,-241.042 -120.77,-238.45 -121.044,-235.92 -121.269,-233.454 -121.445,-231.052 -121.575,-228.714 -121.662,-226.443 -121.708,-224.238 -121.716,-222.101 -121.686,-220.031 -121.623,-218.031 -121.529,-216.099 -121.405,-214.237 -121.254,-212.446 -121.079,-210.724 -120.882,-209.074 -120.666,-207.494 -120.432,-205.985 -120.184,-204.548 -119.923,-203.181 -119.652,-201.886 -119.374,-200.662 -119.091,-199.509 -118.805,-198.426 -118.518,-197.414 -118.234,-196.473 -117.954,-195.6 -117.681,-194.797 -117.416,-194.063 -117.163,-193.397 -116.924,-192.799 -116.7,-192.267 -116.495,-191.801 -116.31,-191.401 -116.148,-191.065 -116.01,-190.792 -115.899,-190.582 -115.818,-190.434 -115.767,-190.345 -114.97,-189.033 -130.047,-178.995 -130.95,-180.237 -131.012,-180.318 -131.118,-180.45 -131.269,-180.634 -131.468,-180.866 -131.715,-181.145 -132.013,-181.47 -132.363,-181.839 -132.768,-182.251 -133.228,-182.702 -133.744,-183.193 -134.32,-183.72 -134.955,-184.282 -135.652,-184.877 -136.411,-185.502 -137.234,-186.157 -138.122,-186.838 -139.077,-187.545 -140.099,-188.274 -141.189,-189.023 -142.349,-189.791 -143.58,-190.574 -144.882,-191.372 -146.256,-192.181 -147.703,-193 -149.223,-193.825 -150.818,-194.655 -152.488,-195.488 -154.234,-196.32 -156.055,-197.15 -157.953,-197.975 -159.928,-198.793 -161.979,-199.601 -164.109,-200.397 -166.315,-201.179 -168.6,-201.943 -170.962,-202.688 -173.401,-203.41 -175.919,-204.108 -178.514,-204.779 -181.186,-205.421 -183.143,-205.143 -189.474,-199.31 -189.911,-197.382 -189.49,-194.667 -189.034,-192.026 -188.544,-189.459 -188.023,-186.969 -187.475,-184.554 -186.9,-182.215 -186.302,-179.951 -185.682,-177.764 -185.045,-175.653 -184.391,-173.618 -183.724,-171.659 -183.046,-169.776 -182.359,-167.968 -181.666,-166.236 -180.969,-164.578 -180.271,-162.995 -179.573,-161.486 -178.879,-160.05 -178.191,-158.688 -177.51,-157.397 -176.84,-156.179 -176.182,-155.03 -175.54,-153.952 -174.914,-152.943 -174.307,-152.002 -173.722,-151.128 -173.161,-150.32 -172.625,-149.577 -172.117,-148.898 -171.638,-148.282 -171.192,-147.726 -170.779,-147.231 -170.403,-146.794 -170.063,-146.415 -169.764,-146.091 -169.505,-145.822 -169.29,-145.605 -169.12,-145.44 -168.997,-145.324 -168.921,-145.255 -167.757,-144.254 -178.995,-130.047 -180.238,-130.95 -180.321,-131.007 -180.463,-131.101 -180.663,-131.228 -180.924,-131.388 -181.245,-131.577 -181.629,-131.794 -182.077,-132.037 -182.588,-132.303 -183.165,-132.591 -183.808,-132.897 -184.518,-133.221 -185.296,-133.559 -186.142,-133.909 -187.058,-134.27 -188.043,-134.638 -189.098,-135.012 -190.225,-135.388 -191.422,-135.766 -192.69,-136.142 -194.031,-136.513 -195.443,-136.878 -196.928,-137.235 -198.485,-137.58 -200.114,-137.911 -201.815,-138.226 -203.588,-138.523 -205.434,-138.799 -207.351,-139.051 -209.34,-139.277 -211.4,-139.476 -213.531,-139.643 -215.732,-139.778 -218.003,-139.877 -220.343,-139.938 -222.752,-139.959 -225.228,-139.937 -227.772,-139.871 -230.382,-139.757 -233.057,-139.593 -235.796,-139.377 -237.572,-138.508 -241.791,-131.005 -241.611,-129.036 -240.371,-126.583 -239.121,-124.212 -237.862,-121.923 -236.597,-119.715 -235.329,-117.588 -234.06,-115.541 -232.791,-113.574 -231.527,-111.685 -230.268,-109.874 -229.017,-108.141 -227.778,-106.484 -226.551,-104.902 -225.339,-103.395 -224.144,-101.962 -222.969,-100.601 -221.816,-99.311 -220.686,-98.091 -219.583,-96.94 -218.507,-95.857 -217.461,-94.84 -216.447,-93.888 -215.466,-92.999 -214.522,-92.173 -213.615,-91.406 -212.747,-90.699 -211.921,-90.048 -211.137,-89.453 -210.398,-88.912 -209.705,-88.424 -209.059,-87.985 -208.463,-87.595 -207.918,-87.251 -207.424,-86.953 -206.985,-86.697 -206.6,-86.481 -206.271,-86.305 -205.999,-86.165 -205.786,-86.06 -205.633,-85.988 -205.54,-85.946 -204.123,-85.354 -210.421,-68.37 -211.882,-68.844 -211.979,-68.873 -212.143,-68.918 -212.373,-68.978 -212.67,-69.049 -213.034,-69.129 -213.466,-69.217 -213.967,-69.31 -214.536,-69.405 -215.173,-69.5 -215.88,-69.593 -216.655,-69.681 -217.499,-69.763 -218.412,-69.834 -219.394,-69.894 -220.445,-69.94 -221.564,-69.969 -222.752,-69.979 -224.007,-69.968 -225.33,-69.934 -226.719,-69.873 -228.175,-69.784 -229.697,-69.664 -231.285,-69.511 -232.936,-69.323 -234.652,-69.097 -236.43,-68.831 -238.27,-68.523 -240.172,-68.17 -242.133,-67.771 -244.154,-67.323 -246.232,-66.824 -248.367,-66.272 -250.557,-65.664 -252.802,-64.999 -255.099,-64.275 -257.448,-63.489 -259.846,-62.639 -262.293,-61.724 -264.787,-60.742 -267.326,-59.69 -268.746,-58.315 -270.439,-49.875 -269.66,-48.059 -267.723,-46.109 -265.801,-44.241 -263.897,-42.453 -262.012,-40.744 -260.148,-39.112 -258.308,-37.558 -256.494,-36.078 -254.707,-34.673 -252.951,-33.34 -251.226,-32.078 -249.535,-30.885 -247.879,-29.76 -246.261,-28.701 -244.682,-27.707 -243.144,-26.776 -241.648,-25.905 -240.197,-25.094 -238.792,-24.341 -237.434,-23.643 -236.125,-22.999 -234.866,-22.407 -233.659,-21.865 -232.505,-21.37 -231.406,-20.922 -230.362,-20.517 -229.375,-20.154 -228.446,-19.83 -227.576,-19.544 -226.765,-19.293 -226.016,-19.076 -225.329,-18.889 -224.704,-18.731 -224.142,-18.599 -223.645,-18.492 -223.212,-18.406 -222.845,-18.34 -222.543,-18.291 -222.308,-18.257 -222.14,-18.236 -222.039,-18.224 -220.509,-18.098 -221.25,0 -222.786,0 -222.887,0.003 -223.057,0.011 -223.294,0.025 -223.598,0.049 -223.97,0.085 -224.408,0.135 -224.912,0.202 -225.483,0.287 -226.119,0.394 -226.819,0.523 -227.584,0.679 -228.412,0.863 -229.302,1.077 -230.255,1.323 -231.268,1.604 -232.342,1.922 -233.474,2.28 -234.665,2.678 -235.912,3.12 -237.215,3.607 -238.572,4.142 -239.982,4.726 -241.445,5.362 -242.957,6.051 -244.519,6.796 -246.128,7.599 -247.783,8.461 -249.483,9.383 -251.225,10.369 -253.008,11.42 -254.83,12.536 -256.69,13.721 -258.586,14.976 -260.515,16.302 -262.476,17.701 -264.466,19.174 -266.485,20.723 -268.529,22.35 -270.598,24.054 -272.687,25.839 -273.613,27.586 -272.615,36.136 -271.312,37.623 -268.868,38.879 -266.463,40.062 -264.099,41.174 -261.778,42.217 -259.502,43.192 -257.272,44.102 -255.089,44.948 -252.956,45.733 -250.873,46.458 -248.843,47.125 -246.866,47.737 -244.943,48.296 -243.077,48.802 -241.268,49.26 -239.517,49.67 -237.826,50.036 -236.195,50.359 -234.626,50.641 -233.119,50.885 -231.675,51.093 -230.295,51.267 -228.98,51.41 -227.73,51.524 -226.545,51.611 -225.427,51.673 -224.376,51.713 -223.393,51.734 -222.477,51.737 -221.629,51.725 -220.849,51.701 -220.137,51.666 -219.494,51.623 -218.919,51.575 -218.413,51.524 -217.975,51.471 -217.605,51.421 -217.304,51.374 -217.069,51.334 -216.903,51.302 -216.803,51.281 -215.309,50.928 -210.421,68.37 -211.882,68.845 -211.977,68.879 -212.136,68.938 -212.357,69.026 -212.639,69.143 -212.981,69.291 -213.383,69.474 -213.842,69.694 -214.358,69.951 -214.93,70.249 -215.556,70.589 -216.235,70.973 -216.966,71.404 -217.747,71.882 -218.577,72.411 -219.454,72.992 -220.376,73.626 -221.343,74.316 -222.352,75.062 -223.401,75.868 -224.49,76.734 -225.616,77.662 -226.776,78.653 -227.971,79.71 -229.196,80.833 -230.451,82.024 -231.734,83.285 -233.041,84.616 -234.373,86.019 -235.725,87.494 -237.096,89.044 -238.484,90.67 -239.887,92.371 -241.302,94.15 -242.727,96.008 -244.159,97.944 -245.597,99.96 -247.039,102.057 -248.48,104.236 -249.92,106.496 -251.356,108.84 -251.697,110.787 -248.106,118.61 -246.407,119.622 -243.695,120.061 -241.042,120.443 -238.45,120.77 -235.92,121.044 -233.454,121.269 -231.052,121.445 -228.714,121.575 -226.443,121.662 -224.238,121.708 -222.101,121.716 -220.031,121.686 -218.031,121.623 -216.099,121.529 -214.237,121.405 -212.446,121.254 -210.724,121.079 -209.074,120.882 -207.494,120.666 -205.985,120.432 -204.548,120.184 -203.181,119.923 -201.886,119.652 -200.662,119.374 -199.509,119.091 -198.426,118.805 -197.414,118.518 -196.473,118.234 -195.6,117.954 -194.797,117.681 -194.063,117.416 -193.397,117.163 -192.799,116.924 -192.267,116.7 -191.801,116.495 -191.401,116.31 -191.065,116.148 -190.792,116.01 -190.582,115.899 -190.434,115.818 -190.345,115.767 -189.033,114.97 -178.995,130.047 -180.237,130.95 -180.318,131.012 -180.45,131.118 -180.634,131.269 -180.866,131.468 -181.145,131.715 -181.47,132.013 -181.839,132.363 -182.251,132.768 -182.702,133.228 -183.193,133.744 -183.72,134.32 -184.282,134.955 -184.877,135.652 -185.502,136.411 -186.157,137.234 -186.838,138.122 -187.545,139.077 -188.274,140.099 -189.023,141.189 -189.791,142.349 -190.574,143.58 -191.372,144.882 -192.181,146.256 -193,147.703 -193.825,149.223 -194.655,150.818 -195.488,152.488 -196.32,154.234 -197.15,156.055 -197.975,157.953 -198.793,159.928 -199.601,161.979 -200.397,164.109 -201.179,166.315 -201.943,168.6 -202.688,170.962 -203.41,173.401 -204.108,175.919 -204.779,178.514 -205.421,181.186 -205.143,183.143 -199.31,189.474 -197.382,189.911 -194.667,189.49 -192.026,189.034 -189.459,188.544 -186.969,188.023 -184.554,187.475 -182.215,186.9 -179.951,186.302 -177.764,185.682 -175.653,185.045 -173.618,184.391 -171.659,183.724 -169.776,183.046 -167.968,182.359 -166.236,181.666 -164.578,180.969 -162.995,180.271 -161.486,179.573 -160.05,178.879 -158.688,178.191 -157.397,177.51 -156.179,176.84 -155.03,176.182 -153.952,175.54 -152.943,174.914 -152.002,174.307 -151.128,173.722 -150.32,173.161 -149.577,172.625 -148.898,172.117 -148.282,171.638 -147.726,171.192 -147.231,170.779 -146.794,170.403 -146.415,170.063 -146.091,169.764 -145.822,169.505 -145.605,169.29 -145.44,169.12 -145.324,168.997 -145.255,168.921 -144.254,167.757 -130.047,178.995 -130.95,180.238 -131.007,180.321 -131.101,180.463 -131.228,180.663 -131.388,180.924 -131.577,181.245 -131.794,181.629 -132.037,182.077 -132.303,182.588 -132.591,183.165 -132.897,183.808 -133.221,184.518 -133.559,185.296 -133.909,186.142 -134.27,187.058 -134.638,188.043 -135.012,189.098 -135.388,190.225 -135.766,191.422 -136.142,192.69 -136.513,194.031 -136.878,195.443 -137.235,196.928 -137.58,198.485 -137.911,200.114 -138.226,201.815 -138.523,203.588 -138.799,205.434 -139.051,207.351 -139.277,209.34 -139.476,211.4 -139.643,213.531 -139.778,215.732 -139.877,218.003 -139.938,220.343 -139.959,222.752 -139.937,225.228 -139.871,227.772 -139.757,230.382 -139.593,233.057 -139.377,235.796 -138.508,237.572 -131.005,241.791 -129.036,241.611 -126.583,240.371 -124.212,239.121 -121.923,237.862 -119.715,236.597 -117.588,235.329 -115.541,234.06 -113.574,232.791 -111.685,231.527 -109.874,230.268 -108.141,229.017 -106.484,227.778 -104.902,226.551 -103.395,225.339 -101.962,224.144 -100.601,222.969 -99.311,221.816 -98.091,220.686 -96.94,219.583 -95.857,218.507 -94.84,217.461 -93.888,216.447 -92.999,215.466 -92.173,214.522 -91.406,213.615 -90.699,212.747 -90.048,211.921 -89.453,211.137 -88.912,210.398 -88.424,209.705 -87.985,209.059 -87.595,208.463 -87.251,207.918 -86.953,207.424 -86.697,206.985 -86.481,206.6 -86.305,206.271 -86.165,205.999 -86.06,205.786 -85.988,205.633 -85.946,205.54 -85.354,204.123 -68.37,210.421 -68.844,211.882 -68.873,211.979 -68.918,212.143 -68.978,212.373 -69.049,212.67 -69.129,213.034 -69.217,213.466 -69.31,213.967 -69.405,214.536 -69.5,215.173 -69.593,215.88 -69.681,216.655 -69.763,217.499 -69.834,218.412 -69.894,219.394 -69.94,220.445 -69.969,221.564 -69.979,222.752 -69.968,224.007 -69.934,225.33 -69.873,226.719 -69.784,228.175 -69.664,229.697 -69.511,231.285 -69.323,232.936 -69.097,234.652 -68.831,236.43 -68.523,238.27 -68.17,240.172 -67.771,242.133 -67.323,244.154 -66.824,246.232 -66.272,248.367 -65.664,250.557 -64.999,252.802 -64.275,255.099 -63.489,257.448 -62.639,259.846 -61.724,262.293 -60.742,264.787 -59.69,267.326 -58.315,268.746 -49.875,270.439 -48.059,269.66 -46.109,267.723 -44.241,265.801 -42.453,263.897 -40.744,262.012 -39.112,260.148 -37.558,258.308 -36.078,256.494 -34.673,254.707 -33.34,252.951 -32.078,251.226 -30.885,249.535 -29.76,247.879 -28.701,246.261 -27.707,244.682 -26.776,243.144 -25.905,241.648 -25.094,240.197 -24.341,238.792 -23.643,237.434 -22.999,236.125 -22.407,234.866 -21.865,233.659 -21.37,232.505 -20.922,231.406 -20.517,230.362 -20.154,229.375 -19.83,228.446 -19.544,227.576 -19.293,226.765 -19.076,226.016 -18.889,225.329 -18.731,224.704 -18.599,224.142 -18.492,223.645 -18.406,223.212 -18.34,222.845 -18.291,222.543 -18.257,222.308 -18.236,222.14 -18.224,222.039 -18.098,220.509 0,221.25 0,222.786 0.003,222.887 0.011,223.057 0.025,223.294 0.049,223.598 0.085,223.97 0.135,224.408 0.202,224.912 0.287,225.483 0.394,226.119 0.523,226.819 0.679,227.584 0.863,228.412 1.077,229.302 1.323,230.255 1.604,231.268 1.922,232.342 2.28,233.474 2.678,234.665 3.12,235.912 3.607,237.215 4.142,238.572 4.726,239.982 5.362,241.445 6.051,242.957 6.796,244.519 7.599,246.128 8.461,247.783 9.383,249.483 10.369,251.225 11.42,253.008 12.536,254.83 13.721,256.69 14.976,258.586 16.302,260.515 17.701,262.476 19.174,264.466 20.723,266.485 22.35,268.529 24.054,270.598 25.839,272.687 27.586,273.613 36.136,272.615 37.623,271.312 38.879,268.868 40.062,266.463 41.174,264.099 42.217,261.778 43.192,259.502 44.102,257.272 44.948,255.089 45.733,252.956 46.458,250.873 47.125,248.843 47.737,246.866 48.296,244.943 48.802,243.077 49.26,241.268 49.67,239.517 50.036,237.826 50.359,236.195 50.641,234.626 50.885,233.119 51.093,231.675 51.267,230.295 51.41,228.98 51.524,227.73 51.611,226.545 51.673,225.427 51.713,224.376 51.734,223.393 51.737,222.477 51.725,221.629 51.701,220.849 51.666,220.137 51.623,219.494 51.575,218.919 51.524,218.413 51.471,217.975 51.421,217.605 51.374,217.304 51.334,217.069 51.302,216.903 51.281,216.803 50.928,215.309 68.37,210.421 68.845,211.882 68.879,211.977 68.938,212.136 69.026,212.357 69.143,212.639 69.291,212.981 69.474,213.383 69.694,213.842 69.951,214.358 70.249,214.93 70.589,215.556 70.973,216.235 71.404,216.966 71.882,217.747 72.411,218.577 72.992,219.454 73.626,220.376 74.316,221.343 75.062,222.352 75.868,223.401 76.734,224.49 77.662,225.616 78.653,226.776 79.71,227.971 80.833,229.196 82.024,230.451 83.285,231.734 84.616,233.041 86.019,234.373 87.494,235.725 89.044,237.096 90.67,238.484 92.371,239.887 94.15,241.302 96.008,242.727 97.944,244.159 99.96,245.597 102.057,247.039 104.236,248.48 106.496,249.92 108.84,251.356 110.787,251.697 118.61,248.106 119.622,246.407 120.061,243.695 120.443,241.042 120.77,238.45 121.044,235.92 121.269,233.454 121.445,231.052 121.575,228.714 121.662,226.443 121.708,224.238 121.716,222.101 121.686,220.031 121.623,218.031 121.529,216.099 121.405,214.237 121.254,212.446 121.079,210.724 120.882,209.074 120.666,207.494 120.432,205.985 120.184,204.548 119.923,203.181 119.652,201.886 119.374,200.662 119.091,199.509 118.805,198.426 118.518,197.414 118.234,196.473 117.954,195.6 117.681,194.797 117.416,194.063 117.163,193.397 116.924,192.799 116.7,192.267 116.495,191.801 116.31,191.401 116.148,191.065 116.01,190.792 115.899,190.582 115.818,190.434 115.767,190.345 114.97,189.033 130.047,178.995 130.95,180.237 131.012,180.318 131.118,180.45 131.269,180.634 131.468,180.866 131.715,181.145 132.013,181.47 132.363,181.839 132.768,182.251 133.228,182.702 133.744,183.193 134.32,183.72 134.955,184.282 135.652,184.877 136.411,185.502 137.234,186.157 138.122,186.838 139.077,187.545 140.099,188.274 141.189,189.023 142.349,189.791 143.58,190.574 144.882,191.372 146.256,192.181 147.703,193 149.223,193.825 150.818,194.655 152.488,195.488 154.234,196.32 156.055,197.15 157.953,197.975 159.928,198.793 161.979,199.601 164.109,200.397 166.315,201.179 168.6,201.943 170.962,202.688 173.401,203.41 175.919,204.108 178.514,204.779 181.186,205.421 183.143,205.143 189.474,199.31 189.911,197.382 189.49,194.667 189.034,192.026 188.544,189.459 188.023,186.969 187.475,184.554 186.9,182.215 186.302,179.951 185.682,177.764 185.045,175.653 184.391,173.618 183.724,171.659 183.046,169.776 182.359,167.968 181.666,166.236 180.969,164.578 180.271,162.995 179.573,161.486 178.879,160.05 178.191,158.688 177.51,157.397 176.84,156.179 176.182,155.03 175.54,153.952 174.914,152.943 174.307,152.002 173.722,151.128 173.161,150.32 172.625,149.577 172.117,148.898 171.638,148.282 171.192,147.726 170.779,147.231 170.403,146.794 170.063,146.415 169.764,146.091 169.505,145.822 169.29,145.605 169.12,145.44 168.997,145.324 168.921,145.255 167.757,144.254 178.995,130.047 180.238,130.95 180.321,131.007 180.463,131.101 180.663,131.228 180.924,131.388 181.245,131.577 181.629,131.794 182.077,132.037 182.588,132.303 183.165,132.591 183.808,132.897 184.518,133.221 185.296,133.559 186.142,133.909 187.058,134.27 188.043,134.638 189.098,135.012 190.225,135.388 191.422,135.766 192.69,136.142 194.031,136.513 195.443,136.878 196.928,137.235 198.485,137.58 200.114,137.911 201.815,138.226 203.588,138.523 205.434,138.799 207.351,139.051 209.34,139.277 211.4,139.476 213.531,139.643 215.732,139.778 218.003,139.877 220.343,139.938 222.752,139.959 225.228,139.937 227.772,139.871 230.382,139.757 233.057,139.593 235.796,139.377 237.572,138.508 241.791,131.005 241.611,129.036 240.371,126.583 239.121,124.212 237.862,121.923 236.597,119.715 235.329,117.588 234.06,115.541 232.791,113.574 231.527,111.685 230.268,109.874 229.017,108.141 227.778,106.484 226.551,104.902 225.339,103.395 224.144,101.962 222.969,100.601 221.816,99.311 220.686,98.091 219.583,96.94 218.507,95.857 217.461,94.84 216.447,93.888 215.466,92.999 214.522,92.173 213.615,91.406 212.747,90.699 211.921,90.048 211.137,89.453 210.398,88.912 209.705,88.424 209.059,87.985 208.463,87.595 207.918,87.251 207.424,86.953 206.985,86.697 206.6,86.481 206.271,86.305 205.999,86.165 205.786,86.06 205.633,85.988 205.54,85.946 204.123,85.354 210.421,68.37 211.882,68.844 211.979,68.873 212.143,68.918 212.373,68.978 212.67,69.049 213.034,69.129 213.466,69.217 213.967,69.31 214.536,69.405 215.173,69.5 215.88,69.593 216.655,69.681 217.499,69.763 218.412,69.834 219.394,69.894 220.445,69.94 221.564,69.969 222.752,69.979 224.007,69.968 225.33,69.934 226.719,69.873 228.175,69.784 229.697,69.664 231.285,69.511 232.936,69.323 234.652,69.097 236.43,68.831 238.27,68.523 240.172,68.17 242.133,67.771 244.154,67.323 246.232,66.824 248.367,66.272 250.557,65.664 252.802,64.999 255.099,64.275 257.448,63.489 259.846,62.639 262.293,61.724 264.787,60.742 267.326,59.69 268.746,58.315 270.439,49.875 269.66,48.059 267.723,46.109 265.801,44.241 263.897,42.453 262.012,40.744 260.148,39.112 258.308,37.558 256.494,36.078 254.707,34.673 252.951,33.34 251.226,32.078 249.535,30.885 247.879,29.76 246.261,28.701 244.682,27.707 243.144,26.776 241.648,25.905 240.197,25.094 238.792,24.341 237.434,23.643 236.125,22.999 234.866,22.407 233.659,21.865 232.505,21.37 231.406,20.922 230.362,20.517 229.375,20.154 228.446,19.83 227.576,19.544 226.765,19.293 226.016,19.076 225.329,18.889 224.704,18.731 224.142,18.599 223.645,18.492 223.212,18.406 222.845,18.34 222.543,18.291 222.308,18.257 222.14,18.236 222.039,18.224 220.509,18.098 "
     stroke-miterlimit="10"
     stroke-width="1"
     stroke="#444"
     fill="#ddd"
     class="gear"
     data-id="0"
     id="gearpoly0" /><g
     id="g7"
     class="guides"><polyline
       id="polyline3"
       points="10,0 -10,0"
       stroke-miterlimit="10"
       stroke-width="0.5"
       stroke="#444"
       fill="none" /><polyline
       id="polyline5"
       points="0,10 0,-10"
       stroke-miterlimit="10"
       stroke-width="0.5"
       stroke="#444"
       fill="none" /></g><circle
     id="circle9"
     r="9.813"
     cy="-28.968"
     cx="248.316"
     stroke-miterlimit="10"
     stroke="none"
     class="firstmarker"
     fill="#c00" /><g
     id="g81"
     class="geartext"><g
       id="g79"
       class="text"><polyline
         id="polyline11"
         points="84.4 -171.62 81.7 -172.92 78.98 -174.18 76.24 -175.4 73.48 -176.57 "
         stroke-miterlimit="1"
         stroke-linecap="square"
         stroke-width="0.5"
         stroke="#444"
         fill="none" /><polyline
         id="polyline13"
         points="76.5 -168.72 81.46 -179.65 "
         stroke-miterlimit="1"
         stroke-linecap="square"
         stroke-width="0.5"
         stroke="#444"
         fill="none" /><polyline
         id="polyline15"
         points="87.05 -177 82.98 -175.63 78.98 -174.18 75.04 -172.65 71.17 -171.03 "
         stroke-miterlimit="1"
         stroke-linecap="square"
         stroke-width="0.5"
         stroke="#444"
         fill="none" /><polyline
         id="polyline17"
         points="81.75 -166.23 80.42 -170.21 78.98 -174.18 77.43 -178.15 75.78 -182.11 "
         stroke-miterlimit="1"
         stroke-linecap="square"
         stroke-width="0.5"
         stroke="#444"
         fill="none" /><polyline
         id="polyline19"
         points="94.53 -159.32 90.53 -158.18 88.04 -159.58 86.93 -163.59 92.56 -174.18 96.73 -175.34 99.47 -173.8 100.65 -169.64 94.53 -159.32 "
         stroke-miterlimit="1"
         stroke-linecap="square"
         stroke-width="0.5"
         stroke="#444"
         fill="none" /><polyline
         id="polyline21"
         points="130.23 -152.12 118.53 -138.44 119.21 -143.75 119.76 -149.11 120.17 -154.52 120.44 -159.98 109.61 -145.6 "
         stroke-miterlimit="1"
         stroke-linecap="square"
         stroke-width="0.5"
         stroke="#444"
         fill="none" /><polyline
         id="polyline23"
         points="139.64 -135.03 137.5 -137.21 135.34 -139.35 133.13 -141.45 130.9 -143.52 "
         stroke-miterlimit="1"
         stroke-linecap="square"
         stroke-width="0.5"
         stroke="#444"
         fill="none" /><polyline
         id="polyline25"
         points="135.33 -130.86 133.26 -132.97 131.16 -135.04 129.02 -137.08 126.85 -139.09 "
         stroke-miterlimit="1"
         stroke-linecap="square"
         stroke-width="0.5"
         stroke="#444"
         fill="none" /><polyline
         id="polyline27"
         points="142.34 -113.82 140.54 -116.04 138.7 -118.23 136.83 -120.39 134.92 -122.52 139.36 -126.55 143.58 -126.33 145.55 -124.06 147.48 -121.77 151.71 -121.31 154.05 -123.19 154.42 -127.5 152.4 -129.9 150.34 -132.28 146.03 -132.6 "
         stroke-miterlimit="1"
         stroke-linecap="square"
         stroke-width="0.5"
         stroke="#444"
         fill="none" /><polyline
         id="polyline29"
         points="153.3 -104 149.2 -104.67 147.54 -107 148.24 -111.1 157.84 -118.29 162.11 -117.56 163.93 -115.01 163.23 -110.74 153.3 -104 "
         stroke-miterlimit="1"
         stroke-linecap="square"
         stroke-width="0.5"
         stroke="#444"
         fill="none" /><polyline
         id="polyline31"
         points="169.08 -89.38 170.46 -86.71 171.8 -84.03 173.1 -81.33 177.09 -79.83 179.82 -81.07 181.24 -85.15 179.89 -87.98 178.48 -90.8 177.04 -93.58 161.12 -85.17 "
         stroke-miterlimit="1"
         stroke-linecap="square"
         stroke-width="0.5"
         stroke="#444"
         fill="none" /><polyline
         id="polyline33"
         points="168.41 -69.65 179.5 -74.24 "
         stroke-miterlimit="1"
         stroke-linecap="square"
         stroke-width="0.5"
         stroke="#444"
         fill="none" /><polyline
         id="polyline35"
         points="182.28 -75.39 185.05 -76.53 "
         stroke-miterlimit="1"
         stroke-linecap="square"
         stroke-width="0.5"
         stroke="#444"
         fill="none" /><polyline
         id="polyline37"
         points="177.08 -54.4 173.35 -56.24 175.29 -59.93 189.48 -64.78 "
         stroke-miterlimit="1"
         stroke-linecap="square"
         stroke-width="0.5"
         stroke="#444"
         fill="none" /><polyline
         id="polyline39"
         points="185.69 -57.04 184.77 -59.95 183.81 -62.84 182.8 -65.71 181.74 -68.57 "
         stroke-miterlimit="1"
         stroke-linecap="square"
         stroke-width="0.5"
         stroke="#444"
         fill="none" /><polyline
         id="polyline41"
         points="178.47 -36.91 177.87 -39.7 177.23 -42.49 176.54 -45.26 178.7 -48.82 184.49 -50.4 188.16 -48.24 188.9 -45.29 189.58 -42.32 190.23 -39.34 "
         stroke-miterlimit="1"
         stroke-linecap="square"
         stroke-width="0.5"
         stroke="#444"
         fill="none" /><polyline
         id="polyline43"
         points="185.45 -32.32 188.9 -29.88 192.32 -27.33 192.72 -24.31 190.1 -20.96 181.15 -19.97 "
         stroke-miterlimit="1"
         stroke-linecap="square"
         stroke-width="0.5"
         stroke="#444"
         fill="none" /><polyline
         id="polyline45"
         points="179.54 -31.29 197.28 -34.38 "
         stroke-miterlimit="1"
         stroke-linecap="square"
         stroke-width="0.5"
         stroke="#444"
         fill="none" /><polyline
         id="polyline47"
         points="182.25 0 182.23 2.86 182.16 5.72 182.05 8.57 184.89 11.62 196.86 12.37 200.03 9.42 200.15 6.28 200.23 3.14 200.25 0 "
         stroke-miterlimit="1"
         stroke-linecap="square"
         stroke-width="0.5"
         stroke="#444"
         fill="none" /><polyline
         id="polyline49"
         points="200.23 3.14 182.23 2.86 "
         stroke-miterlimit="1"
         stroke-linecap="square"
         stroke-width="0.5"
         stroke="#444"
         fill="none" /><polyline
         id="polyline51"
         points="191.87 30.35 192.32 27.33 192.72 24.31 193.08 21.29 193.39 18.26 "
         stroke-miterlimit="1"
         stroke-linecap="square"
         stroke-width="0.5"
         stroke="#444"
         fill="none" /><polyline
         id="polyline53"
         points="185.94 29.41 186.38 26.49 186.77 23.56 187.12 20.63 187.42 17.69 "
         stroke-miterlimit="1"
         stroke-linecap="square"
         stroke-width="0.5"
         stroke="#444"
         fill="none" /><polyline
         id="polyline55"
         points="193.98 49.73 194.73 46.68 195.44 43.62 196.1 40.55 196.71 37.47 190.82 36.35 190.23 39.34 189.58 42.32 188.9 45.29 185.26 47.5 179.45 46.01 177.23 42.49 177.87 39.7 178.47 36.91 181.98 34.67 "
         stroke-miterlimit="1"
         stroke-linecap="square"
         stroke-width="0.5"
         stroke="#444"
         fill="none" /><polyline
         id="polyline57"
         points="178.94 67.51 177.86 70.31 176.73 73.09 175.56 75.86 177.09 79.83 179.82 81.07 183.83 79.43 185.05 76.53 186.23 73.62 187.36 70.69 170.52 64.34 "
         stroke-miterlimit="1"
         stroke-linecap="square"
         stroke-width="0.5"
         stroke="#444"
         fill="none" /><polyline
         id="polyline59"
         points="168.8 96.12 170.29 93.46 171.73 90.78 173.14 88.08 174.5 85.35 "
         stroke-miterlimit="1"
         stroke-linecap="square"
         stroke-width="0.5"
         stroke="#444"
         fill="none" /><polyline
         id="polyline61"
         points="163.59 93.15 165.03 90.58 166.43 87.98 167.79 85.35 169.11 82.71 "
         stroke-miterlimit="1"
         stroke-linecap="square"
         stroke-width="0.5"
         stroke="#444"
         fill="none" /><polyline
         id="polyline63"
         points="154.11 108.11 155.79 105.68 157.42 103.23 159.02 100.75 160.58 98.24 162.4 102.89 164.11 107.61 165.72 112.42 150.82 102.32 "
         stroke-miterlimit="1"
         stroke-linecap="square"
         stroke-width="0.5"
         stroke="#444"
         fill="none" /><polyline
         id="polyline65"
         points="143.58 126.33 141.59 128.57 139.55 130.77 137.48 132.95 137.5 137.21 139.63 139.33 143.95 139.2 146.12 136.93 148.25 134.62 150.34 132.28 136.83 120.39 "
         stroke-miterlimit="1"
         stroke-linecap="square"
         stroke-width="0.5"
         stroke="#444"
         fill="none" /><polyline
         id="polyline67"
         points="124.91 132.71 129.02 137.08 130.9 143.52 132.6 150.05 126.33 147.56 120.17 144.9 116.34 140.28 "
         stroke-miterlimit="1"
         stroke-linecap="square"
         stroke-width="0.5"
         stroke="#444"
         fill="none" /><polyline
         id="polyline69"
         points="129.02 137.08 126.85 139.09 124.66 141.06 122.43 143 120.17 144.9 "
         stroke-miterlimit="1"
         stroke-linecap="square"
         stroke-width="0.5"
         stroke="#444"
         fill="none" /><polyline
         id="polyline71"
         points="109.4 160.51 111.9 158.78 114.38 157 116.83 155.19 119.25 153.34 "
         stroke-miterlimit="1"
         stroke-linecap="square"
         stroke-width="0.5"
         stroke="#444"
         fill="none" /><polyline
         id="polyline73"
         points="106.02 155.56 108.45 153.87 110.85 152.15 113.22 150.4 115.57 148.6 "
         stroke-miterlimit="1"
         stroke-linecap="square"
         stroke-width="0.5"
         stroke="#444"
         fill="none" /><polyline
         id="polyline75"
         points="88.04 159.58 90.53 158.18 93 156.74 95.44 155.26 97.87 153.74 101.09 158.8 100.16 162.93 97.59 164.48 95 165.99 93.83 170.08 95.28 172.71 99.47 173.8 102.18 172.22 104.87 170.59 105.92 166.4 "
         stroke-miterlimit="1"
         stroke-linecap="square"
         stroke-width="0.5"
         stroke="#444"
         fill="none" /><polyline
         id="polyline77"
         points="91.18 178.29 88.37 179.69 85.55 181.06 82.69 182.38 79.82 183.65 78.98 174.18 77.86 164.78 "
         stroke-miterlimit="1"
         stroke-linecap="square"
         stroke-width="0.5"
         stroke="#444"
         fill="none" /></g></g><g
     id="g89"
     opacity="0.2"
     class="guides gearguides"><circle
       id="circle83"
       r="250"
       cy="0"
       cx="0"
       stroke-miterlimit="10"
       stroke="#f00"
       fill="none"
       class="pitch" /><circle
       id="circle85"
       r="275"
       cy="0"
       cx="0"
       stroke-dasharray="2,2"
       stroke-miterlimit="10"
       stroke="#ccc"
       fill="none"
       class="outer" /><circle
       id="circle87"
       r="222.75"
       cy="0"
       cx="0"
       stroke-dasharray="2,2"
       stroke-miterlimit="10"
       stroke="#00f"
       fill="none"
       class="base" /></g></svg>