\relax 
\providecommand\hyper@newdestlabel[2]{}
\catcode `"\active 
\providecommand\HyperFirstAtBeginDocument{\AtBeginDocument}
\HyperFirstAtBeginDocument{\ifx\hyper@anchor\@undefined
\global\let\oldcontentsline\contentsline
\gdef\contentsline#1#2#3#4{\oldcontentsline{#1}{#2}{#3}}
\global\let\oldnewlabel\newlabel
\gdef\newlabel#1#2{\newlabelxx{#1}#2}
\gdef\newlabelxx#1#2#3#4#5#6{\oldnewlabel{#1}{{#2}{#3}}}
\AtEndDocument{\ifx\hyper@anchor\@undefined
\let\contentsline\oldcontentsline
\let\newlabel\oldnewlabel
\fi}
\fi}
\global\let\hyper@last\relax 
\gdef\HyperFirstAtBeginDocument#1{#1}
\providecommand\HyField@AuxAddToFields[1]{}
\providecommand\HyField@AuxAddToCoFields[2]{}
\select@language{brazil}
\@writefile{toc}{\select@language{brazil}}
\@writefile{lof}{\select@language{brazil}}
\@writefile{lot}{\select@language{brazil}}
\newmarginnote{note.1.1}{{1}{4379743sp}}
\newmarginnote{note.1.2}{{1}{4379743sp}}
\newmarginnote{note.2.1}{{2}{4379743sp}}
\@writefile{toc}{\contentsline {paragraph}{Resposta:}{2}{section*.1}}
\newmarginnote{note.2.2}{{2}{4379743sp}}
\newmarginnote{note.3.1}{{3}{2800979sp}}
\@writefile{toc}{\contentsline {paragraph}{Resposta:}{3}{section*.2}}
\newmarginnote{note.3.2}{{3}{2800979sp}}
